<svg version="1.1"
	 id="Layer_1" xmlns:v="http://schemas.microsoft.com/visio/2003/SVGExtensions/" xmlns:ev="http://www.w3.org/2001/xml-events"
	 xmlns="http://www.w3.org/2000/svg" xmlns:xlink="http://www.w3.org/1999/xlink" x="0px" y="0px" width="43px" height="24.221px"
	 viewBox="0 0 43 24.221" enable-background="new 0 0 43 24.221" xml:space="preserve">
		<linearGradient id="anim"  fy="0">
      <stop offset="0" stop-color="#148F01">
		</stop>
		<stop offset=".7" stop-color="#46DF04">
		</stop>
    </linearGradient>
        
		<g transform="translate(0.24,-0.24)">
			<g>
				<path fill="url(#anim)"  stroke='rgba(49,163,0,0.7)' d="M0,1.48c0-0.55,0.45-1,1-1h40.52c0.55,0,1,0.45,1,1v21.74c0,0.55-0.45,1-1,1H1c-0.55,0-1-0.45-1-1V1.48z">
					
        </path>
			</g>
		</g>
</svg>
