<?xml version="1.0" encoding="utf-8"?>
<!-- Generator: Adobe Illustrator 15.0.2, SVG Export Plug-In . SVG Version: 6.00 Build 0)  -->
<!DOCTYPE svg PUBLIC "-//W3C//DTD SVG 1.1//EN" "http://www.w3.org/Graphics/SVG/1.1/DTD/svg11.dtd">
<svg version="1.1" id="Layer_1" xmlns="http://www.w3.org/2000/svg" xmlns:xlink="http://www.w3.org/1999/xlink" x="0px" y="0px"
	 width="151.965px" height="71.801px" viewBox="0 0 151.965 71.801" enable-background="new 0 0 151.965 71.801"
	 xml:space="preserve">
<path fill="#FFFFFF" d="M0,48.967L15.894,0L64.86,15.891l-1.386,4.273h0.003c-0.108,0.321-0.452,0.498-0.775,0.393
	c-0.32-0.105-0.499-0.45-0.394-0.774l1.006-3.103L16.682,1.545L1.55,48.179l46.63,15.133l2.22-6.847
	c0.109-0.322,0.45-0.497,0.777-0.395c0.318,0.106,0.497,0.451,0.39,0.774L48.97,64.86L0,48.967z"/>
<path fill="#FFFFFF" d="M47.742,20.458l51.345-3.728l0.934,12.81c0.023,0.341-0.231,0.633-0.571,0.659
	c-0.336,0.024-0.633-0.23-0.657-0.568l-0.84-11.588l-48.896,3.55l3.551,48.896l48.896-3.549l-0.305-4.203
	c-0.027-0.338,0.227-0.631,0.568-0.659c0.335-0.024,0.633,0.233,0.654,0.569l0.394,5.427L51.47,71.801L47.742,20.458z"/>
<path fill="#FFFFFF" d="M95.148,62.575l5.646-51.168l51.171,5.645l-5.581,50.561l-0.066,0.608L95.148,62.575z M145.775,67.545
	l0.065-0.613L145.775,67.545z M96.5,61.488l48.732,5.379l5.373-48.73l-48.725-5.377L96.5,61.488z"/>
<path fill="#FFFFFF" d="M13.428,28.2h11.304c9,0,7.95,4.271,6.287,8.968s-3.638,8.968-12.637,8.968H7.075L13.428,28.2z
	 M16.056,42.771h1.546c3.019,0,3.661-0.755,5.379-5.603c1.719-4.849,1.608-5.601-1.409-5.601h-1.548L16.056,42.771z"/>
<path fill="#FFFFFF" d="M46.118,27.847c7.955,0,9.751,2.613,7.374,9.321c-2.377,6.709-6.021,9.318-13.977,9.318
	c-7.955,0-9.752-2.609-7.376-9.318C34.514,30.46,38.162,27.847,46.118,27.847 M40.636,43.321c2.389,0,3.101-1.305,4.816-6.152
	c1.719-4.849,1.93-6.156-0.456-6.156c-2.389,0-3.101,1.307-4.819,6.156C38.462,42.016,38.25,43.321,40.636,43.321"/>
<path fill="#FFFFFF" d="M68.633,27.847c7.958,0,9.751,2.613,7.372,9.321c-2.375,6.709-6.019,9.318-13.976,9.318
	c-7.952,0-9.747-2.609-7.375-9.318C57.03,30.46,60.679,27.847,68.633,27.847 M63.151,43.321c2.387,0,3.101-1.305,4.816-6.152
	c1.72-4.849,1.93-6.156-0.457-6.156c-2.384,0-3.099,1.307-4.818,6.156C60.975,42.016,60.765,43.321,63.151,43.321"/>
<path fill="#FFFFFF" d="M90.478,33.377l0.156-0.432c0.37-1.054-0.025-1.931-1.536-1.931c-1.675,0-2.705,0.779-2.989,1.582
	c-1.258,3.542,12.089,1.808,9.766,8.367c-1.355,3.816-5.684,5.523-12.551,5.523c-6.448,0-9.576-1.328-8.262-5.049l0.226-0.627h7.536
	l-0.153,0.43c-0.538,1.529,0.307,2.08,1.816,2.08c1.589,0,2.781-0.752,3.127-1.731c1.252-3.542-11.596-1.784-9.344-8.138
	c1.282-3.617,5.207-5.602,11.783-5.602c6.781,0,9.076,1.68,7.713,5.528H90.478z"/>
<path fill="#FFFFFF" d="M107.196,28.198h9.796l0.933,17.939h-8.289l0.314-3.141h-6.194l-1.907,3.141h-8.292L107.196,28.198z
	 M110.833,31.867h-0.082l-4.834,7.611h4.357L110.833,31.867z"/>
<polygon fill="#FFFFFF" points="125.24,28.2 133.949,28.2 135.06,39.254 135.142,39.254 139.059,28.2 146.344,28.2 139.988,46.135 
	131.448,46.135 130.177,35.058 130.098,35.058 126.172,46.135 118.889,46.135 "/>
</svg>
